%YAML 1.1
%TAG !u! tag:unity3d.com,2011:
--- !u!114 &11400000
MonoBehaviour:
  m_ObjectHideFlags: 0
  m_CorrespondingSourceObject: {fileID: 0}
  m_PrefabInstance: {fileID: 0}
  m_PrefabAsset: {fileID: 0}
  m_GameObject: {fileID: 0}
  m_Enabled: 1
  m_EditorHideFlags: 0
  m_Script: {fileID: 11500000, guid: 606c3f654535f3047b81fab262b9b4de, type: 3}
  m_Name: AttackSucess
  m_EditorClassIdentifier: 
  titleKey: Merchant.Title
  desctiprionKey: Merchant.AttackSucess
  sprite: {fileID: 0}
  preferedImageHeight: 300
  eventStartSound: {fileID: 0}
  minActivationChance: 0
  maxActivationChance: 0
  dangerLevel: 0
  result:
    respectGain: 300
    moralesDelta: 0.2
    peoplesDelta: 0
    resourcesDelta: 50
    mapEffect: {fileID: 0}
  staticOptions:
  - actionDescriptionKey: Continue
    requirement:
      requiredSkill: {fileID: 0}
      requiredSkillLevel: 0
      morales: 0
      peoples: 0
      resources: 0
    nextEvent: {fileID: 0}
    nextEventOnFail: {fileID: 0}
    chanceOfSuccess: 0
  skillOptions: []
