%YAML 1.1
%TAG !u! tag:unity3d.com,2011:
--- !u!114 &11400000
MonoBehaviour:
  m_ObjectHideFlags: 0
  m_CorrespondingSourceObject: {fileID: 0}
  m_PrefabInstance: {fileID: 0}
  m_PrefabAsset: {fileID: 0}
  m_GameObject: {fileID: 0}
  m_Enabled: 1
  m_EditorHideFlags: 0
  m_Script: {fileID: 11500000, guid: bbb281ee3bf0b054c82ac2347e9e782c, type: 3}
  m_Name: TilesAndEvents
  m_EditorClassIdentifier: 
  m_GroupName: TilesAndEvents
  m_Data:
    m_SerializedData: []
  m_GUID: 4281ce631dcfab94a9af2edfd444bd69
  m_SerializeEntries:
  - m_GUID: 6bfa44954b6e90740b37ab9865ff54ef
    m_Address: Assets/ScriptableObjects/Events/GeneralEvents/Merchant/Merchant-Main.asset
    m_ReadOnly: 0
    m_SerializedLabels: []
    m_MainAsset: {fileID: 0}
    m_TargetAsset: {fileID: 0}
  - m_GUID: b28139dcef01dfe4782bac8af9ca8aa9
    m_Address: Assets/ScriptableObjects/Events/StoryEvents/Level1/Level1-Main.asset
    m_ReadOnly: 0
    m_SerializedLabels: []
    m_MainAsset: {fileID: 0}
    m_TargetAsset: {fileID: 0}
  - m_GUID: 7fa75c6d6aae9904b8bee65c6b4bf5ab
    m_Address: Assets/ScriptableObjects/Events/StoryEvents/Level2/Level2-Main.asset
    m_ReadOnly: 0
    m_SerializedLabels: []
    m_MainAsset: {fileID: 0}
    m_TargetAsset: {fileID: 0}
  - m_GUID: e2a8648db94bc2d47b50c4a8b67fd674
    m_Address: Assets/ScriptableObjects/Events/StoryEvents/Level3/Level3-Main.asset
    m_ReadOnly: 0
    m_SerializedLabels: []
    m_MainAsset: {fileID: 0}
    m_TargetAsset: {fileID: 0}
  - m_GUID: d583b33d5e8a838499458947a0195571
    m_Address: Assets/ScriptableObjects/Events/StoryEvents/Level4/Level4-Main.asset
    m_ReadOnly: 0
    m_SerializedLabels: []
    m_MainAsset: {fileID: 0}
    m_TargetAsset: {fileID: 0}
  - m_GUID: 37af005162166dc4a846924b2e8896d4
    m_Address: Assets/ScriptableObjects/Events/StoryEvents/Level5/Level5-Main.asset
    m_ReadOnly: 0
    m_SerializedLabels: []
    m_MainAsset: {fileID: 0}
    m_TargetAsset: {fileID: 0}
  - m_GUID: d788cb813e993b648a9f208f183c471c
    m_Address: Assets/ScriptableObjects/Events/StoryEvents/Level6/Level6-Main.asset
    m_ReadOnly: 0
    m_SerializedLabels: []
    m_MainAsset: {fileID: 0}
    m_TargetAsset: {fileID: 0}
  - m_GUID: 6dd35e57529442f48b0c029a2b0bd922
    m_Address: Assets/ScriptableObjects/Events/StoryEvents/Level7/Level7-Main.asset
    m_ReadOnly: 0
    m_SerializedLabels: []
    m_MainAsset: {fileID: 0}
    m_TargetAsset: {fileID: 0}
  - m_GUID: 50a81a27b398a7f429abad84117e8916
    m_Address: Assets/ScriptableObjects/Events/StoryEvents/Level8/Level8-Main.asset
    m_ReadOnly: 0
    m_SerializedLabels: []
    m_MainAsset: {fileID: 0}
    m_TargetAsset: {fileID: 0}
  - m_GUID: 72154b0dea659514397918950d4c398c
    m_Address: Assets/ScriptableObjects/Events/StoryEvents/Level9/Level9-Main.asset
    m_ReadOnly: 0
    m_SerializedLabels: []
    m_MainAsset: {fileID: 0}
    m_TargetAsset: {fileID: 0}
  - m_GUID: ede19e454acd75242832663f8751d441
    m_Address: Assets/ScriptableObjects/Events/StoryEvents/Level10/Level10-Main.asset
    m_ReadOnly: 0
    m_SerializedLabels: []
    m_MainAsset: {fileID: 0}
    m_TargetAsset: {fileID: 0}
  - m_GUID: e285c92772a0d30489e7f4a6f4a22752
    m_Address: Assets/ScriptableObjects/Events/CommonEvents.asset
    m_ReadOnly: 0
    m_SerializedLabels: []
    m_MainAsset: {fileID: 0}
    m_TargetAsset: {fileID: 0}
  - m_GUID: 6d0fe426459001f45b24c271a74600ac
    m_Address: Assets/ScriptableObjects/TileSets/Green.asset
    m_ReadOnly: 0
    m_SerializedLabels: []
    m_MainAsset: {fileID: 0}
    m_TargetAsset: {fileID: 0}
  - m_GUID: f0284ba80400162448c45458b265787f
    m_Address: Assets/ScriptableObjects/TileSets/Dirt.asset
    m_ReadOnly: 0
    m_SerializedLabels: []
    m_MainAsset: {fileID: 0}
    m_TargetAsset: {fileID: 0}
  - m_GUID: 5b5ea7da8cf0ff04b83e4de0165a04b1
    m_Address: Assets/ScriptableObjects/TileSets/Desert.asset
    m_ReadOnly: 0
    m_SerializedLabels: []
    m_MainAsset: {fileID: 0}
    m_TargetAsset: {fileID: 0}
  - m_GUID: 08356b58afcdc4449ae51959aad5c9df
    m_Address: Assets/ScriptableObjects/Events/Dirt/Wolfs/Wolfs-Main.asset
    m_ReadOnly: 0
    m_SerializedLabels: []
    m_MainAsset: {fileID: 0}
    m_TargetAsset: {fileID: 0}
  - m_GUID: 34a03241147ad394ea3c136b8413469c
    m_Address: Assets/ScriptableObjects/Events/GeneralEvents/Collect/Collect-Main.asset
    m_ReadOnly: 0
    m_SerializedLabels: []
    m_MainAsset: {fileID: 0}
    m_TargetAsset: {fileID: 0}
  - m_GUID: 281e67393603f334e9cbb9c7da412674
    m_Address: Assets/ScriptableObjects/Events/Castle/Basic/BasicCastle-VariantMarketTraining.asset
    m_ReadOnly: 0
    m_SerializedLabels: []
    m_MainAsset: {fileID: 11400000, guid: 281e67393603f334e9cbb9c7da412674, type: 2}
    m_TargetAsset: {fileID: 11400000, guid: 281e67393603f334e9cbb9c7da412674, type: 2}
  - m_GUID: 534c97aec1d577040bbb75e9b3b9b8bd
    m_Address: Assets/ScriptableObjects/Events/Desert/Another/Another-Main.asset
    m_ReadOnly: 0
    m_SerializedLabels: []
    m_MainAsset: {fileID: 0}
    m_TargetAsset: {fileID: 0}
  - m_GUID: b2eb6bd80c85b3643adde84edde5d3f2
    m_Address: Assets/ScriptableObjects/Events/Green/Beggar/Beggar-Main.asset
    m_ReadOnly: 0
    m_SerializedLabels: []
    m_MainAsset: {fileID: 0}
    m_TargetAsset: {fileID: 0}
  - m_GUID: 9180c353e97809b45b31bb89af0ffcdb
    m_Address: Assets/ScriptableObjects/Events/Castle/Basic/BasicCastle-VariantTavernTraining.asset
    m_ReadOnly: 0
    m_SerializedLabels: []
    m_MainAsset: {fileID: 11400000, guid: 9180c353e97809b45b31bb89af0ffcdb, type: 2}
    m_TargetAsset: {fileID: 11400000, guid: 9180c353e97809b45b31bb89af0ffcdb, type: 2}
  - m_GUID: 48bebd06973a10947be34a8fb4318123
    m_Address: Assets/ScriptableObjects/Events/Castle/Basic/BasicCastle-VariantMarketTavern.asset
    m_ReadOnly: 0
    m_SerializedLabels: []
    m_MainAsset: {fileID: 11400000, guid: 48bebd06973a10947be34a8fb4318123, type: 2}
    m_TargetAsset: {fileID: 11400000, guid: 48bebd06973a10947be34a8fb4318123, type: 2}
  m_ReadOnly: 0
  m_Settings: {fileID: 11400000, guid: 00f5acaf3008d874aa517ef1e4c965fb, type: 2}
  m_SchemaSet:
    m_Schemas:
    - {fileID: 11400000, guid: aef0e579c5a1a344c86a3d0bc9364e58, type: 2}
    - {fileID: 11400000, guid: 8e307a5bb7eb986479c0e9ecb32c3817, type: 2}
