%YAML 1.1
%TAG !u! tag:unity3d.com,2011:
--- !u!114 &11400000
MonoBehaviour:
  m_ObjectHideFlags: 0
  m_CorrespondingSourceObject: {fileID: 0}
  m_PrefabInstance: {fileID: 0}
  m_PrefabAsset: {fileID: 0}
  m_GameObject: {fileID: 0}
  m_Enabled: 1
  m_EditorHideFlags: 0
  m_Script: {fileID: 11500000, guid: 8ecaa4f6764028a4aa56d1305b4a73ad, type: 3}
  m_Name: Desert
  m_EditorClassIdentifier: 
  resourcesToGather: 0
  events:
  - threshold: 0.08
    property:
      m_AssetGUID: 534c97aec1d577040bbb75e9b3b9b8bd
      m_SubObjectName: 
      m_SubObjectType: 
  heightLevels:
  - threshold: 0
    property:
      sprites:
      - m_AssetGUID: c8ec527dfa2b3b84c8bb741f74afb0ec
        m_SubObjectName: Terrarian_17
        m_SubObjectType: UnityEngine.Sprite, UnityEngine.CoreModule, Version=0.0.0.0,
          Culture=neutral, PublicKeyToken=null
      - m_AssetGUID: c8ec527dfa2b3b84c8bb741f74afb0ec
        m_SubObjectName: Terrarian_21
        m_SubObjectType: UnityEngine.Sprite, UnityEngine.CoreModule, Version=0.0.0.0,
          Culture=neutral, PublicKeyToken=null
      - m_AssetGUID: c8ec527dfa2b3b84c8bb741f74afb0ec
        m_SubObjectName: Terrarian_22
        m_SubObjectType: UnityEngine.Sprite, UnityEngine.CoreModule, Version=0.0.0.0,
          Culture=neutral, PublicKeyToken=null
      - m_AssetGUID: c8ec527dfa2b3b84c8bb741f74afb0ec
        m_SubObjectName: Terrarian_27
        m_SubObjectType: UnityEngine.Sprite, UnityEngine.CoreModule, Version=0.0.0.0,
          Culture=neutral, PublicKeyToken=null
      - m_AssetGUID: c8ec527dfa2b3b84c8bb741f74afb0ec
        m_SubObjectName: Terrarian_31
        m_SubObjectType: UnityEngine.Sprite, UnityEngine.CoreModule, Version=0.0.0.0,
          Culture=neutral, PublicKeyToken=null
      events: []
      resourcesToLost: 5
  - threshold: 0.6
    property:
      sprites:
      - m_AssetGUID: c8ec527dfa2b3b84c8bb741f74afb0ec
        m_SubObjectName: Terrarian_2
        m_SubObjectType: UnityEngine.Sprite, UnityEngine.CoreModule, Version=0.0.0.0,
          Culture=neutral, PublicKeyToken=null
      - m_AssetGUID: c8ec527dfa2b3b84c8bb741f74afb0ec
        m_SubObjectName: Terrarian_7
        m_SubObjectType: UnityEngine.Sprite, UnityEngine.CoreModule, Version=0.0.0.0,
          Culture=neutral, PublicKeyToken=null
      - m_AssetGUID: c8ec527dfa2b3b84c8bb741f74afb0ec
        m_SubObjectName: Terrarian_12
        m_SubObjectType: UnityEngine.Sprite, UnityEngine.CoreModule, Version=0.0.0.0,
          Culture=neutral, PublicKeyToken=null
      events: []
      resourcesToLost: 10
  - threshold: 0.9
    property:
      sprites:
      - m_AssetGUID: c8ec527dfa2b3b84c8bb741f74afb0ec
        m_SubObjectName: Terrarian_26
        m_SubObjectType: UnityEngine.Sprite, UnityEngine.CoreModule, Version=0.0.0.0,
          Culture=neutral, PublicKeyToken=null
      - m_AssetGUID: c8ec527dfa2b3b84c8bb741f74afb0ec
        m_SubObjectName: Terrarian_30
        m_SubObjectType: UnityEngine.Sprite, UnityEngine.CoreModule, Version=0.0.0.0,
          Culture=neutral, PublicKeyToken=null
      events: []
      resourcesToLost: 15
