\relax 
\providecommand\hyper@newdestlabel[2]{}
\providecommand\babel@aux[2]{}
\@nameuse{bbl@beforestart}
\catcode `"\active 
\providecommand\HyperFirstAtBeginDocument{\AtBeginDocument}
\HyperFirstAtBeginDocument{\ifx\hyper@anchor\@undefined
\global\let\oldcontentsline\contentsline
\gdef\contentsline#1#2#3#4{\oldcontentsline{#1}{#2}{#3}}
\global\let\oldnewlabel\newlabel
\gdef\newlabel#1#2{\newlabelxx{#1}#2}
\gdef\newlabelxx#1#2#3#4#5#6{\oldnewlabel{#1}{{#2}{#3}}}
\AtEndDocument{\ifx\hyper@anchor\@undefined
\let\contentsline\oldcontentsline
\let\newlabel\oldnewlabel
\fi}
\fi}
\global\let\hyper@last\relax 
\gdef\HyperFirstAtBeginDocument#1{#1}
\providecommand\HyField@AuxAddToFields[1]{}
\providecommand\HyField@AuxAddToCoFields[2]{}
\babel@aux{polish}{}
\@writefile{toc}{\contentsline {chapter}{Streszczenie}{1}{chapter*.2}\protected@file@percent }
\@writefile{toc}{\contentsline {chapter}{\numberline {1}Wstęp}{3}{chapter.1}\protected@file@percent }
\@writefile{lof}{\addvspace {10\p@ }}
\@writefile{lot}{\addvspace {10\p@ }}
\@writefile{toc}{\contentsline {section}{\numberline {1.1}Cel pracy}{3}{section.1.1}\protected@file@percent }
\@writefile{toc}{\contentsline {section}{\numberline {1.2}Zawartość pracy}{4}{section.1.2}\protected@file@percent }
\@writefile{toc}{\contentsline {chapter}{\numberline {2}Analiza tematu}{5}{chapter.2}\protected@file@percent }
\@writefile{lof}{\addvspace {10\p@ }}
\@writefile{lot}{\addvspace {10\p@ }}
\@writefile{toc}{\contentsline {section}{\numberline {2.1}Założenia rozgrywki}{5}{section.2.1}\protected@file@percent }
\citation{mcneill2017generating}
\@writefile{toc}{\contentsline {section}{\numberline {2.2}Generacja poziomów}{6}{section.2.2}\protected@file@percent }
\citation{bib:generating_dungeons}
\citation{bib:generating_dungeons}
\citation{bib:perlin_def}
\citation{bib:simplex}
\@writefile{lof}{\contentsline {figure}{\numberline {2.1}{\ignorespaces Szum Perlina w~przedziale (0, 20) na każdej z~osi\relax }}{9}{figure.caption.3}\protected@file@percent }
\providecommand*\caption@xref[2]{\@setref\relax\@undefined{#1}}
\newlabel{fig:perlin_analize}{{2.1}{9}{Szum Perlina w~przedziale (0, 20) na każdej z~osi\relax }{figure.caption.3}{}}
\@writefile{toc}{\contentsline {section}{\numberline {2.3}Wymagania}{10}{section.2.3}\protected@file@percent }
\@writefile{toc}{\contentsline {subsection}{\numberline {2.3.1}Funkcjonalne}{10}{subsection.2.3.1}\protected@file@percent }
\@writefile{toc}{\contentsline {subsection}{\numberline {2.3.2}Niefunkcjonalne}{10}{subsection.2.3.2}\protected@file@percent }
\@writefile{lof}{\contentsline {figure}{\numberline {2.2}{\ignorespaces Diagram przypadków użycia\relax }}{11}{figure.caption.4}\protected@file@percent }
\newlabel{fig:usecase}{{2.2}{11}{Diagram przypadków użycia\relax }{figure.caption.4}{}}
\citation{bib:unity_manual}
\@writefile{toc}{\contentsline {section}{\numberline {2.4}Opis narzędzi}{12}{section.2.4}\protected@file@percent }
\@writefile{toc}{\contentsline {subsection}{\numberline {2.4.1}Unity}{12}{subsection.2.4.1}\protected@file@percent }
\citation{bib:cs}
\citation{bib:unity_manual}
\citation{bib:hlsl}
\@writefile{toc}{\contentsline {subsubsection}{\numberline {2.4.1.1}Język C\#}{13}{subsubsection.2.4.1.1}\protected@file@percent }
\@writefile{toc}{\contentsline {subsubsection}{\numberline {2.4.1.2}Język ShaderLab}{13}{subsubsection.2.4.1.2}\protected@file@percent }
\citation{bib:addressables}
\citation{bib:tmpro}
\citation{bib:dotween}
\citation{bib:cs}
\citation{bib:unitask}
\@writefile{toc}{\contentsline {subsubsection}{\numberline {2.4.1.3}Addressables}{14}{subsubsection.2.4.1.3}\protected@file@percent }
\@writefile{toc}{\contentsline {subsubsection}{\numberline {2.4.1.4}TextMesh Pro}{14}{subsubsection.2.4.1.4}\protected@file@percent }
\@writefile{toc}{\contentsline {subsection}{\numberline {2.4.2}DoTween}{14}{subsection.2.4.2}\protected@file@percent }
\newlabel{DoTween}{{2.4.2}{14}{DoTween}{subsection.2.4.2}{}}
\citation{bib:vs}
\@writefile{toc}{\contentsline {subsection}{\numberline {2.4.3}UniTask}{15}{subsection.2.4.3}\protected@file@percent }
\@writefile{toc}{\contentsline {subsection}{\numberline {2.4.4}Visual studio 2019}{15}{subsection.2.4.4}\protected@file@percent }
\citation{bib:unity_manual}
\@writefile{toc}{\contentsline {chapter}{\numberline {3}Specyfikacja zewnętrzna}{17}{chapter.3}\protected@file@percent }
\@writefile{lof}{\addvspace {10\p@ }}
\@writefile{lot}{\addvspace {10\p@ }}
\@writefile{toc}{\contentsline {section}{\numberline {3.1}Wymagania sprzętowe i~programowe}{17}{section.3.1}\protected@file@percent }
\@writefile{toc}{\contentsline {section}{\numberline {3.2}Sposób obsługi}{18}{section.3.2}\protected@file@percent }
\@writefile{toc}{\contentsline {subsection}{\numberline {3.2.1}Rozgrywka}{18}{subsection.3.2.1}\protected@file@percent }
\newlabel{rozgrywka}{{3.2.1}{18}{Rozgrywka}{subsection.3.2.1}{}}
\@writefile{toc}{\contentsline {subsubsection}{\numberline {3.2.1.1}Wykonywanie tur}{18}{subsubsection.3.2.1.1}\protected@file@percent }
\newlabel{fig:nextturn}{{3.1a}{18}{Następna tura\relax }{figure.caption.5}{}}
\newlabel{sub@fig:nextturn}{{a}{18}{Następna tura\relax }{figure.caption.5}{}}
\newlabel{fig:player}{{3.1b}{18}{Gracz\relax }{figure.caption.5}{}}
\newlabel{sub@fig:player}{{b}{18}{Gracz\relax }{figure.caption.5}{}}
\@writefile{lof}{\contentsline {figure}{\numberline {3.1}{\ignorespaces Znaczniki na mapie\relax }}{18}{figure.caption.5}\protected@file@percent }
\newlabel{fig:mapmarks}{{3.1}{18}{Znaczniki na mapie\relax }{figure.caption.5}{}}
\@writefile{toc}{\contentsline {subsubsection}{\numberline {3.2.1.2}Granice poziomu}{18}{subsubsection.3.2.1.2}\protected@file@percent }
\newlabel{fig:wall}{{3.2a}{19}{Mur\relax }{figure.caption.6}{}}
\newlabel{sub@fig:wall}{{a}{19}{Mur\relax }{figure.caption.6}{}}
\newlabel{fig:castle}{{3.2b}{19}{Zamek\relax }{figure.caption.6}{}}
\newlabel{sub@fig:castle}{{b}{19}{Zamek\relax }{figure.caption.6}{}}
\@writefile{lof}{\contentsline {figure}{\numberline {3.2}{\ignorespaces Górna granica poziomu\relax }}{19}{figure.caption.6}\protected@file@percent }
\newlabel{fig:border}{{3.2}{19}{Górna granica poziomu\relax }{figure.caption.6}{}}
\@writefile{lof}{\contentsline {figure}{\numberline {3.3}{\ignorespaces Tło\relax }}{19}{figure.caption.7}\protected@file@percent }
\newlabel{fig:warped}{{3.3}{19}{Tło\relax }{figure.caption.7}{}}
\@writefile{toc}{\contentsline {subsubsection}{\numberline {3.2.1.3}Mgła wojny}{20}{subsubsection.3.2.1.3}\protected@file@percent }
\@writefile{lof}{\contentsline {figure}{\numberline {3.4}{\ignorespaces Mgła wojny\relax }}{20}{figure.caption.8}\protected@file@percent }
\newlabel{fig:fogofwar}{{3.4}{20}{Mgła wojny\relax }{figure.caption.8}{}}
\@writefile{toc}{\contentsline {subsubsection}{\numberline {3.2.1.4}Koniec gry}{20}{subsubsection.3.2.1.4}\protected@file@percent }
\@writefile{lof}{\contentsline {figure}{\numberline {3.5}{\ignorespaces Ekran końca gry\relax }}{21}{figure.caption.9}\protected@file@percent }
\newlabel{fig:endgame}{{3.5}{21}{Ekran końca gry\relax }{figure.caption.9}{}}
\@writefile{toc}{\contentsline {subsubsection}{\numberline {3.2.1.5}Zasoby}{21}{subsubsection.3.2.1.5}\protected@file@percent }
\newlabel{fig:peoples}{{3.6a}{21}{Ludzie\relax }{figure.caption.10}{}}
\newlabel{sub@fig:peoples}{{a}{21}{Ludzie\relax }{figure.caption.10}{}}
\newlabel{fig:resources}{{3.6b}{21}{Zasoby\relax }{figure.caption.10}{}}
\newlabel{sub@fig:resources}{{b}{21}{Zasoby\relax }{figure.caption.10}{}}
\newlabel{fig:morales}{{3.6c}{21}{Morale\relax }{figure.caption.10}{}}
\newlabel{sub@fig:morales}{{c}{21}{Morale\relax }{figure.caption.10}{}}
\newlabel{fig:respectpoints}{{3.6d}{21}{Punkty szacunku\relax }{figure.caption.10}{}}
\newlabel{sub@fig:respectpoints}{{d}{21}{Punkty szacunku\relax }{figure.caption.10}{}}
\@writefile{lof}{\contentsline {figure}{\numberline {3.6}{\ignorespaces Ikony atrybutów\relax }}{21}{figure.caption.10}\protected@file@percent }
\newlabel{fig:attributes}{{3.6}{21}{Ikony atrybutów\relax }{figure.caption.10}{}}
\@writefile{toc}{\contentsline {subsubsection}{\numberline {3.2.1.6}Morale}{22}{subsubsection.3.2.1.6}\protected@file@percent }
\@writefile{toc}{\contentsline {subsubsection}{\numberline {3.2.1.7}Rozwój dowódcy}{22}{subsubsection.3.2.1.7}\protected@file@percent }
\@writefile{lot}{\contentsline {table}{\numberline {3.1}{\ignorespaces Umiejętności\relax }}{22}{table.caption.11}\protected@file@percent }
\newlabel{tab:skills}{{3.1}{22}{Umiejętności\relax }{table.caption.11}{}}
\@writefile{toc}{\contentsline {subsubsection}{\numberline {3.2.1.8}Teren}{23}{subsubsection.3.2.1.8}\protected@file@percent }
\newlabel{fig:flatdesert}{{3.7a}{23}{Niziny\relax }{figure.caption.12}{}}
\newlabel{sub@fig:flatdesert}{{a}{23}{Niziny\relax }{figure.caption.12}{}}
\newlabel{fig:highdesert}{{3.7b}{23}{Wyżyny\relax }{figure.caption.12}{}}
\newlabel{sub@fig:highdesert}{{b}{23}{Wyżyny\relax }{figure.caption.12}{}}
\newlabel{fig:mountaindesert}{{3.7c}{23}{Góry\relax }{figure.caption.12}{}}
\newlabel{sub@fig:mountaindesert}{{c}{23}{Góry\relax }{figure.caption.12}{}}
\@writefile{lof}{\contentsline {figure}{\numberline {3.7}{\ignorespaces Przykład kafelków pustynnych\relax }}{23}{figure.caption.12}\protected@file@percent }
\newlabel{fig:desert}{{3.7}{23}{Przykład kafelków pustynnych\relax }{figure.caption.12}{}}
\newlabel{fig:flatdirt}{{3.8a}{23}{Niziny\relax }{figure.caption.13}{}}
\newlabel{sub@fig:flatdirt}{{a}{23}{Niziny\relax }{figure.caption.13}{}}
\newlabel{fig:highdirt}{{3.8b}{23}{Wyżyny\relax }{figure.caption.13}{}}
\newlabel{sub@fig:highdirt}{{b}{23}{Wyżyny\relax }{figure.caption.13}{}}
\newlabel{fig:mountaindirt}{{3.8c}{23}{Góry\relax }{figure.caption.13}{}}
\newlabel{sub@fig:mountaindirt}{{c}{23}{Góry\relax }{figure.caption.13}{}}
\@writefile{lof}{\contentsline {figure}{\numberline {3.8}{\ignorespaces Przykład kafelków błotnistych\relax }}{23}{figure.caption.13}\protected@file@percent }
\newlabel{fig:dirt}{{3.8}{23}{Przykład kafelków błotnistych\relax }{figure.caption.13}{}}
\newlabel{fig:flatgreen}{{3.9a}{24}{Niziny\relax }{figure.caption.14}{}}
\newlabel{sub@fig:flatgreen}{{a}{24}{Niziny\relax }{figure.caption.14}{}}
\newlabel{fig:highgreen}{{3.9b}{24}{Wyżyny\relax }{figure.caption.14}{}}
\newlabel{sub@fig:highgreen}{{b}{24}{Wyżyny\relax }{figure.caption.14}{}}
\newlabel{fig:mountaingreen}{{3.9c}{24}{Góry\relax }{figure.caption.14}{}}
\newlabel{sub@fig:mountaingreen}{{c}{24}{Góry\relax }{figure.caption.14}{}}
\@writefile{lof}{\contentsline {figure}{\numberline {3.9}{\ignorespaces Przykład kafelków trawiastych\relax }}{24}{figure.caption.14}\protected@file@percent }
\newlabel{fig:green}{{3.9}{24}{Przykład kafelków trawiastych\relax }{figure.caption.14}{}}
\@writefile{toc}{\contentsline {subsection}{\numberline {3.2.2}Obsługa menu}{24}{subsection.3.2.2}\protected@file@percent }
\newlabel{menu-manual}{{3.2.2}{24}{Obsługa menu}{subsection.3.2.2}{}}
\@writefile{lof}{\contentsline {figure}{\numberline {3.10}{\ignorespaces Ustawienia rozgrywki i~dźwięku\relax }}{25}{figure.caption.15}\protected@file@percent }
\newlabel{fig:menu-gameplay}{{3.10}{25}{Ustawienia rozgrywki i~dźwięku\relax }{figure.caption.15}{}}
\@writefile{lof}{\contentsline {figure}{\numberline {3.11}{\ignorespaces Ustawienia grafiki\relax }}{26}{figure.caption.16}\protected@file@percent }
\newlabel{fig:menu-graphic}{{3.11}{26}{Ustawienia grafiki\relax }{figure.caption.16}{}}
\@writefile{lof}{\contentsline {figure}{\numberline {3.12}{\ignorespaces Ustawienia sterowania\relax }}{26}{figure.caption.17}\protected@file@percent }
\newlabel{fig:menu-controlls}{{3.12}{26}{Ustawienia sterowania\relax }{figure.caption.17}{}}
\@writefile{lof}{\contentsline {figure}{\numberline {3.13}{\ignorespaces Rozpoczęcie gry\relax }}{27}{figure.caption.18}\protected@file@percent }
\newlabel{fig:menu-new}{{3.13}{27}{Rozpoczęcie gry\relax }{figure.caption.18}{}}
\@writefile{lof}{\contentsline {figure}{\numberline {3.14}{\ignorespaces Lista zapisów\relax }}{27}{figure.caption.19}\protected@file@percent }
\newlabel{fig:menu-saves}{{3.14}{27}{Lista zapisów\relax }{figure.caption.19}{}}
\@writefile{toc}{\contentsline {subsection}{\numberline {3.2.3}Nawigacja}{28}{subsection.3.2.3}\protected@file@percent }
\@writefile{toc}{\contentsline {subsection}{\numberline {3.2.4}Elementy interfejsu}{29}{subsection.3.2.4}\protected@file@percent }
\@writefile{lof}{\contentsline {figure}{\numberline {3.15}{\ignorespaces Główny widok rozgrywki\relax }}{30}{figure.caption.20}\protected@file@percent }
\newlabel{fig:ui-main}{{3.15}{30}{Główny widok rozgrywki\relax }{figure.caption.20}{}}
\@writefile{lof}{\contentsline {figure}{\numberline {3.16}{\ignorespaces Okno rozwoju postaci\relax }}{30}{figure.caption.21}\protected@file@percent }
\newlabel{fig:ui-skills}{{3.16}{30}{Okno rozwoju postaci\relax }{figure.caption.21}{}}
\@writefile{lof}{\contentsline {figure}{\numberline {3.17}{\ignorespaces Widok zdarzenia losowego (tytuł, obraz, opis)\relax }}{32}{figure.caption.22}\protected@file@percent }
\newlabel{fig:ui-eventstart}{{3.17}{32}{Widok zdarzenia losowego (tytuł, obraz, opis)\relax }{figure.caption.22}{}}
\@writefile{lof}{\contentsline {figure}{\numberline {3.18}{\ignorespaces Widok zdarzenia losowego (opcje)\relax }}{32}{figure.caption.23}\protected@file@percent }
\newlabel{fig:ui-eventend}{{3.18}{32}{Widok zdarzenia losowego (opcje)\relax }{figure.caption.23}{}}
\@writefile{toc}{\contentsline {chapter}{\numberline {4}Specyfikacja wewnętrzna}{33}{chapter.4}\protected@file@percent }
\@writefile{lof}{\addvspace {10\p@ }}
\@writefile{lot}{\addvspace {10\p@ }}
\@writefile{toc}{\contentsline {section}{\numberline {4.1}Elementy gry}{33}{section.4.1}\protected@file@percent }
\newlabel{elements}{{4.1}{33}{Elementy gry}{section.4.1}{}}
\@writefile{toc}{\contentsline {subsection}{\numberline {4.1.1}Kafelki}{33}{subsection.4.1.1}\protected@file@percent }
\@writefile{lof}{\contentsline {figure}{\numberline {4.1}{\ignorespaces Hierarchia klas kafelków\relax }}{34}{figure.caption.24}\protected@file@percent }
\newlabel{fig:tileinherit}{{4.1}{34}{Hierarchia klas kafelków\relax }{figure.caption.24}{}}
\@writefile{toc}{\contentsline {paragraph}{Metody publiczne : Klasa MapTile}{35}{section*.25}\protected@file@percent }
\@writefile{toc}{\contentsline {paragraph}{Atrybuty publiczne : Klasa MapTile}{35}{section*.26}\protected@file@percent }
\@writefile{toc}{\contentsline {paragraph}{Właściwości : Klasa MapTile}{36}{section*.27}\protected@file@percent }
\@writefile{toc}{\contentsline {paragraph}{Atrybuty prywatne : Klasa MapTile}{36}{section*.28}\protected@file@percent }
\@writefile{toc}{\contentsline {paragraph}{Statyczne atrybuty prywatne : Klasa MapTile}{36}{section*.29}\protected@file@percent }
\@writefile{toc}{\contentsline {subsection}{\numberline {4.1.2}Zdarzenia losowe na mapie}{36}{subsection.4.1.2}\protected@file@percent }
\newlabel{sec:mapevent}{{4.1.2}{36}{Zdarzenia losowe na mapie}{subsection.4.1.2}{}}
\@writefile{toc}{\contentsline {paragraph}{Metody publiczne : Klasa MapEvent}{37}{section*.30}\protected@file@percent }
\@writefile{toc}{\contentsline {paragraph}{Właściwości : Klasa MapEvent}{37}{section*.31}\protected@file@percent }
\@writefile{toc}{\contentsline {subsection}{\numberline {4.1.3}Poziomy gry}{37}{subsection.4.1.3}\protected@file@percent }
\@writefile{toc}{\contentsline {paragraph}{Metody publiczne : Klasa MapLevel}{37}{section*.32}\protected@file@percent }
\@writefile{toc}{\contentsline {paragraph}{Atrybuty publiczne : Klasa MapLevel}{38}{section*.33}\protected@file@percent }
\@writefile{toc}{\contentsline {paragraph}{Właściwości : Klasa MapLevel}{38}{section*.34}\protected@file@percent }
\@writefile{toc}{\contentsline {paragraph}{Atrybuty prywatne : Klasa MapLevel}{38}{section*.35}\protected@file@percent }
\@writefile{toc}{\contentsline {subsection}{\numberline {4.1.4}Postęp gracza}{39}{subsection.4.1.4}\protected@file@percent }
\@writefile{toc}{\contentsline {paragraph}{Metody publiczne : Klasa PlayerData}{39}{section*.36}\protected@file@percent }
\@writefile{toc}{\contentsline {paragraph}{Statyczne metody publiczne : Klasa PlayerData}{39}{section*.37}\protected@file@percent }
\@writefile{toc}{\contentsline {paragraph}{Właściwości : Klasa PlayerData}{39}{section*.38}\protected@file@percent }
\@writefile{toc}{\contentsline {paragraph}{Atrybuty prywatne : Klasa PlayerData}{40}{section*.39}\protected@file@percent }
\@writefile{toc}{\contentsline {paragraph}{Statyczne atrybuty prywatne : Klasa PlayerData}{40}{section*.40}\protected@file@percent }
\@writefile{toc}{\contentsline {subsection}{\numberline {4.1.5}Rozwój dowódcy}{40}{subsection.4.1.5}\protected@file@percent }
\newlabel{sec:RespectData}{{4.1.5}{40}{Rozwój dowódcy}{subsection.4.1.5}{}}
\@writefile{toc}{\contentsline {paragraph}{Metody publiczne : Klasa RespectData}{41}{section*.41}\protected@file@percent }
\@writefile{toc}{\contentsline {paragraph}{Atrybuty publiczne : Klasa RespectData}{41}{section*.42}\protected@file@percent }
\@writefile{toc}{\contentsline {paragraph}{Właściwości : Klasa RespectData}{41}{section*.43}\protected@file@percent }
\@writefile{toc}{\contentsline {paragraph}{Atrybuty prywatne : Klasa RespectData}{41}{section*.44}\protected@file@percent }
\@writefile{toc}{\contentsline {paragraph}{Statyczne atrybuty prywatne : Klasa RespectData}{41}{section*.45}\protected@file@percent }
\@writefile{toc}{\contentsline {subsection}{\numberline {4.1.6}Umiejętności dowódcy}{42}{subsection.4.1.6}\protected@file@percent }
\newlabel{sec:HeroSkill}{{4.1.6}{42}{Umiejętności dowódcy}{subsection.4.1.6}{}}
\@writefile{toc}{\contentsline {paragraph}{Metody publiczne : Klasa HeroSkill}{42}{section*.46}\protected@file@percent }
\@writefile{toc}{\contentsline {paragraph}{Atrybuty publiczne : Klasa HeroSkill}{42}{section*.47}\protected@file@percent }
\@writefile{toc}{\contentsline {paragraph}{Atrybuty prywatne : Klasa HeroSkill}{42}{section*.48}\protected@file@percent }
\@writefile{toc}{\contentsline {subsection}{\numberline {4.1.7}Zapis gry}{42}{subsection.4.1.7}\protected@file@percent }
\@writefile{toc}{\contentsline {paragraph}{Metody publiczne : Klasa SaveData}{42}{section*.49}\protected@file@percent }
\@writefile{toc}{\contentsline {paragraph}{Statyczne metody publiczne : Klasa SaveData}{42}{section*.50}\protected@file@percent }
\@writefile{toc}{\contentsline {paragraph}{Atrybuty publiczne : Klasa SaveData}{43}{section*.51}\protected@file@percent }
\@writefile{toc}{\contentsline {section}{\numberline {4.2}Implementacja rozgrywki}{43}{section.4.2}\protected@file@percent }
\newlabel{managers}{{4.2}{43}{Implementacja rozgrywki}{section.4.2}{}}
\@writefile{toc}{\contentsline {subsection}{\numberline {4.2.1}Główny zarządca}{43}{subsection.4.2.1}\protected@file@percent }
\@writefile{toc}{\contentsline {paragraph}{Metody publiczne : Klasa GameManager}{43}{section*.52}\protected@file@percent }
\@writefile{toc}{\contentsline {paragraph}{Atrybuty publiczne : Klasa GameManager}{44}{section*.53}\protected@file@percent }
\@writefile{toc}{\contentsline {paragraph}{Właściwości : Klasa GameManager}{44}{section*.54}\protected@file@percent }
\@writefile{toc}{\contentsline {paragraph}{Metody prywatne : Klasa GameManager}{44}{section*.55}\protected@file@percent }
\@writefile{toc}{\contentsline {paragraph}{Atrybuty prywatne : Klasa GameManager}{44}{section*.56}\protected@file@percent }
\@writefile{toc}{\contentsline {paragraph}{Statyczne atrybuty prywatne : Klasa GameManager}{45}{section*.57}\protected@file@percent }
\@writefile{toc}{\contentsline {subsection}{\numberline {4.2.2}Zarządca mapy}{45}{subsection.4.2.2}\protected@file@percent }
\newlabel{sec:MapManager}{{4.2.2}{45}{Zarządca mapy}{subsection.4.2.2}{}}
\@writefile{toc}{\contentsline {paragraph}{Metody publiczne : Klasa MapManager}{45}{section*.58}\protected@file@percent }
\@writefile{toc}{\contentsline {paragraph}{Atrybuty publiczne : Klasa MapManager}{46}{section*.59}\protected@file@percent }
\@writefile{toc}{\contentsline {paragraph}{Właściwości : Klasa MapManager}{46}{section*.60}\protected@file@percent }
\@writefile{toc}{\contentsline {paragraph}{Metody prywatne : Klasa MapManager}{46}{section*.61}\protected@file@percent }
\@writefile{toc}{\contentsline {paragraph}{Statyczne metody prywatne : Klasa MapManager}{47}{section*.62}\protected@file@percent }
\@writefile{toc}{\contentsline {paragraph}{Atrybuty prywatne : Klasa MapManager}{47}{section*.63}\protected@file@percent }
\@writefile{toc}{\contentsline {subsection}{\numberline {4.2.3}Zarządca interfejsu użytkownika}{48}{subsection.4.2.3}\protected@file@percent }
\newlabel{sec:UIManager}{{4.2.3}{48}{Metody publiczne : Klasa UIManager}{section*.64}{}}
\@writefile{toc}{\contentsline {paragraph}{Metody publiczne : Klasa UIManager}{48}{section*.64}\protected@file@percent }
\@writefile{toc}{\contentsline {paragraph}{Atrybuty publiczne : Klasa UIManager}{48}{section*.65}\protected@file@percent }
\@writefile{toc}{\contentsline {paragraph}{Właściwości : Klasa UIManager}{49}{section*.66}\protected@file@percent }
\@writefile{toc}{\contentsline {paragraph}{Metody prywatne : Klasa UIManager}{49}{section*.67}\protected@file@percent }
\@writefile{toc}{\contentsline {paragraph}{Atrybuty prywatne : Klasa UIManager}{49}{section*.68}\protected@file@percent }
\@writefile{toc}{\contentsline {subsection}{\numberline {4.2.4}Sterowanie}{49}{subsection.4.2.4}\protected@file@percent }
\@writefile{toc}{\contentsline {paragraph}{Metody publiczne : Klasa InputManager}{49}{section*.69}\protected@file@percent }
\@writefile{toc}{\contentsline {paragraph}{Statyczne metody publiczne : Klasa InputManager}{51}{section*.70}\protected@file@percent }
\@writefile{toc}{\contentsline {paragraph}{Atrybuty publiczne : Klasa InputManager}{51}{section*.71}\protected@file@percent }
\@writefile{toc}{\contentsline {paragraph}{Właściwości : Klasa InputManager}{52}{section*.73}\protected@file@percent }
\@writefile{toc}{\contentsline {paragraph}{Metody prywatne : Klasa InputManager}{52}{section*.74}\protected@file@percent }
\@writefile{toc}{\contentsline {paragraph}{Atrybuty prywatne : Klasa InputManager}{52}{section*.75}\protected@file@percent }
\@writefile{lof}{\contentsline {figure}{\numberline {4.2}{\ignorespaces Klasy obsługujące sterowanie\relax }}{53}{figure.caption.76}\protected@file@percent }
\newlabel{fig:inputclass}{{4.2}{53}{Klasy obsługujące sterowanie\relax }{figure.caption.76}{}}
\@writefile{toc}{\contentsline {subsection}{\numberline {4.2.5}System tłumaczący}{54}{subsection.4.2.5}\protected@file@percent }
\newlabel{localization}{{4.2.5}{54}{System tłumaczący}{subsection.4.2.5}{}}
\@writefile{toc}{\contentsline {subsubsection}{\numberline {4.2.5.1}Plik z~tłumaczeniem}{54}{subsubsection.4.2.5.1}\protected@file@percent }
\@writefile{toc}{\contentsline {paragraph}{Metody publiczne : Klasa LocalizationReaderCSV}{54}{section*.77}\protected@file@percent }
\@writefile{toc}{\contentsline {paragraph}{Atrybuty publiczne : Klasa LocalizationReaderCSV}{54}{section*.78}\protected@file@percent }
\@writefile{toc}{\contentsline {paragraph}{Metody prywatne : Klasa LocalizationReaderCSV}{55}{section*.79}\protected@file@percent }
\@writefile{toc}{\contentsline {subsubsection}{\numberline {4.2.5.2}Zarządzanie tłumaczeniem}{55}{subsubsection.4.2.5.2}\protected@file@percent }
\@writefile{toc}{\contentsline {paragraph}{Statyczne metody publiczne : Klasa LocalizationManager}{55}{section*.80}\protected@file@percent }
\@writefile{toc}{\contentsline {paragraph}{Statyczne atrybuty publiczne : Klasa LocalizationManager}{55}{section*.81}\protected@file@percent }
\@writefile{toc}{\contentsline {paragraph}{Właściwości : Klasa LocalizationManager}{55}{section*.82}\protected@file@percent }
\@writefile{toc}{\contentsline {paragraph}{Statyczne atrybuty prywatne : Klasa LocalizationManager}{56}{section*.83}\protected@file@percent }
\@writefile{toc}{\contentsline {section}{\numberline {4.3}Konfiguracja generacji poziomów}{56}{section.4.3}\protected@file@percent }
\newlabel{levelconfig}{{4.3}{56}{Konfiguracja generacji poziomów}{section.4.3}{}}
\@writefile{toc}{\contentsline {subsection}{\numberline {4.3.1}Konfiguracja zdarzeń losowych}{56}{subsection.4.3.1}\protected@file@percent }
\newlabel{sec:EventProvider}{{4.3.1}{56}{Konfiguracja zdarzeń losowych}{subsection.4.3.1}{}}
\@writefile{toc}{\contentsline {paragraph}{Atrybuty publiczne : Klasa EventProvider}{57}{section*.86}\protected@file@percent }
\@writefile{toc}{\contentsline {subsection}{\numberline {4.3.2}Opcje zdarzeń losowych}{57}{subsection.4.3.2}\protected@file@percent }
\@writefile{lof}{\contentsline {figure}{\numberline {4.3}{\ignorespaces Diagram klasy zdarzenia losowego\relax }}{58}{figure.caption.84}\protected@file@percent }
\newlabel{fig:eventprovider}{{4.3}{58}{Diagram klasy zdarzenia losowego\relax }{figure.caption.84}{}}
\@writefile{lof}{\contentsline {figure}{\numberline {4.4}{\ignorespaces Konfiguracja zdarzenia losowego\relax }}{59}{figure.caption.85}\protected@file@percent }
\newlabel{fig:eventconfig}{{4.4}{59}{Konfiguracja zdarzenia losowego\relax }{figure.caption.85}{}}
\@writefile{lof}{\contentsline {figure}{\numberline {4.5}{\ignorespaces Hierarchia klas opcji rozwiązania zdarzenia losowego\relax }}{60}{figure.caption.87}\protected@file@percent }
\newlabel{fig:optionprovider}{{4.5}{60}{Hierarchia klas opcji rozwiązania zdarzenia losowego\relax }{figure.caption.87}{}}
\@writefile{lof}{\contentsline {figure}{\numberline {4.6}{\ignorespaces Konfiguracja opcji rozwiązania zdarzenia losowego\relax }}{61}{figure.caption.88}\protected@file@percent }
\newlabel{fig:optionsconfig}{{4.6}{61}{Konfiguracja opcji rozwiązania zdarzenia losowego\relax }{figure.caption.88}{}}
\@writefile{toc}{\contentsline {subsubsection}{\numberline {4.3.2.1}EventOptionBase}{62}{subsubsection.4.3.2.1}\protected@file@percent }
\@writefile{toc}{\contentsline {paragraph}{Metody publiczne : Klasa EventOptionBase}{62}{section*.89}\protected@file@percent }
\@writefile{toc}{\contentsline {paragraph}{Atrybuty publiczne : Klasa EventOptionBase}{62}{section*.90}\protected@file@percent }
\@writefile{toc}{\contentsline {paragraph}{Metody chronione : Klasa EventOptionBase}{62}{section*.91}\protected@file@percent }
\@writefile{toc}{\contentsline {paragraph}{Właściwości : Klasa EventOptionBase}{62}{section*.92}\protected@file@percent }
\@writefile{toc}{\contentsline {paragraph}{Atrybuty prywatne : Klasa EventOptionBase}{62}{section*.93}\protected@file@percent }
\@writefile{toc}{\contentsline {paragraph}{Metody prywatne : Klasa EventOptionBase}{63}{section*.94}\protected@file@percent }
\@writefile{toc}{\contentsline {subsubsection}{\numberline {4.3.2.2}StaticChanceEventOption}{63}{subsubsection.4.3.2.2}\protected@file@percent }
\@writefile{toc}{\contentsline {paragraph}{Atrybuty prywatne : Klasa StaticChanceEventOption}{63}{section*.95}\protected@file@percent }
\@writefile{toc}{\contentsline {paragraph}{Metody chronione : Klasa StaticChanceEventOption}{63}{section*.96}\protected@file@percent }
\@writefile{toc}{\contentsline {subsubsection}{\numberline {4.3.2.3}SkillScaledEventOption}{63}{subsubsection.4.3.2.3}\protected@file@percent }
\@writefile{toc}{\contentsline {paragraph}{Metody publiczne : Klasa SkillScaledEventOption}{63}{section*.97}\protected@file@percent }
\@writefile{toc}{\contentsline {paragraph}{Atrybuty publiczne : Klasa SkillScaledEventOption}{63}{section*.98}\protected@file@percent }
\@writefile{toc}{\contentsline {paragraph}{Metody chronione : Klasa SkillScaledEventOption}{64}{section*.99}\protected@file@percent }
\@writefile{toc}{\contentsline {paragraph}{Statyczne atrybuty prywatne : Klasa SkillScaledEventOption}{64}{section*.100}\protected@file@percent }
\@writefile{toc}{\contentsline {subsection}{\numberline {4.3.3}Konfiguracja umiejętności}{64}{subsection.4.3.3}\protected@file@percent }
\@writefile{toc}{\contentsline {paragraph}{Metody publiczne : Klasa SkillProvider}{64}{section*.103}\protected@file@percent }
\@writefile{toc}{\contentsline {paragraph}{Atrybuty publiczne : Klasa SkillProvider}{64}{section*.104}\protected@file@percent }
\@writefile{toc}{\contentsline {paragraph}{Właściwości : Klasa SkillProvider}{64}{section*.105}\protected@file@percent }
\@writefile{toc}{\contentsline {paragraph}{Metody prywatne : Klasa SkillProvider}{64}{section*.106}\protected@file@percent }
\@writefile{lof}{\contentsline {figure}{\numberline {4.7}{\ignorespaces Diagram klasy umiejętności\relax }}{65}{figure.caption.101}\protected@file@percent }
\newlabel{fig:skillprovider}{{4.7}{65}{Diagram klasy umiejętności\relax }{figure.caption.101}{}}
\@writefile{lof}{\contentsline {figure}{\numberline {4.8}{\ignorespaces Konfiguracja umiejętności\relax }}{66}{figure.caption.102}\protected@file@percent }
\newlabel{fig:skillconfig}{{4.8}{66}{Konfiguracja umiejętności\relax }{figure.caption.102}{}}
\@writefile{toc}{\contentsline {paragraph}{Atrybuty prywatne : Klasa SkillProvider}{66}{section*.107}\protected@file@percent }
\@writefile{toc}{\contentsline {paragraph}{Statyczne atrybuty prywatne : Klasa SkillProvider}{67}{section*.108}\protected@file@percent }
\@writefile{toc}{\contentsline {subsection}{\numberline {4.3.4}Konfiguracja kafelków}{67}{subsection.4.3.4}\protected@file@percent }
\newlabel{fig:tileset}{{4.9a}{67}{Zestaw zasobności\relax }{figure.caption.109}{}}
\newlabel{sub@fig:tileset}{{a}{67}{Zestaw zasobności\relax }{figure.caption.109}{}}
\newlabel{fig:heightset}{{4.9b}{67}{Zestaw wysokości\relax }{figure.caption.109}{}}
\newlabel{sub@fig:heightset}{{b}{67}{Zestaw wysokości\relax }{figure.caption.109}{}}
\@writefile{lof}{\contentsline {figure}{\numberline {4.9}{\ignorespaces Klasy zestawów kafelków\relax }}{67}{figure.caption.109}\protected@file@percent }
\newlabel{fig:tilesets}{{4.9}{67}{Klasy zestawów kafelków\relax }{figure.caption.109}{}}
\newlabel{fig:tilesetconfiguration}{{4.10a}{68}{Konfiguracja zasobności\relax }{figure.caption.110}{}}
\newlabel{sub@fig:tilesetconfiguration}{{a}{68}{Konfiguracja zasobności\relax }{figure.caption.110}{}}
\newlabel{fig:heightsetconfiguration}{{4.10b}{68}{Konfiguracja wysokości\relax }{figure.caption.110}{}}
\newlabel{sub@fig:heightsetconfiguration}{{b}{68}{Konfiguracja wysokości\relax }{figure.caption.110}{}}
\@writefile{lof}{\contentsline {figure}{\numberline {4.10}{\ignorespaces Konfiguracja zestawów kafelków\relax }}{68}{figure.caption.110}\protected@file@percent }
\newlabel{fig:tilesetsconfiguration}{{4.10}{68}{Konfiguracja zestawów kafelków\relax }{figure.caption.110}{}}
\@writefile{toc}{\contentsline {subsubsection}{\numberline {4.3.4.1}TileSet}{69}{subsubsection.4.3.4.1}\protected@file@percent }
\@writefile{toc}{\contentsline {paragraph}{Metody publiczne : Klasa TileSet}{69}{section*.111}\protected@file@percent }
\@writefile{toc}{\contentsline {paragraph}{Atrybuty publiczne : Klasa TileSet}{69}{section*.112}\protected@file@percent }
\@writefile{toc}{\contentsline {paragraph}{Metody prywatne : Klasa TileSet}{69}{section*.113}\protected@file@percent }
\@writefile{toc}{\contentsline {subsubsection}{\numberline {4.3.4.2}HeightSet}{69}{subsubsection.4.3.4.2}\protected@file@percent }
\@writefile{toc}{\contentsline {paragraph}{Atrybuty publiczne : Klasa HeightSet}{69}{section*.114}\protected@file@percent }
\@writefile{toc}{\contentsline {subsection}{\numberline {4.3.5}Konfiguracja zdarzeń wspólnych}{70}{subsection.4.3.5}\protected@file@percent }
\newlabel{sec:CommonEvents}{{4.3.5}{70}{Konfiguracja zdarzeń wspólnych}{subsection.4.3.5}{}}
\@writefile{toc}{\contentsline {paragraph}{Metody publiczne : Klasa CommonEvents}{70}{section*.115}\protected@file@percent }
\@writefile{toc}{\contentsline {paragraph}{Właściwości : Klasa CommonEvents}{70}{section*.116}\protected@file@percent }
\@writefile{toc}{\contentsline {paragraph}{Atrybuty prywatne : Klasa CommonEvents}{70}{section*.117}\protected@file@percent }
\@writefile{toc}{\contentsline {subsection}{\numberline {4.3.6}Generator poziomów}{70}{subsection.4.3.6}\protected@file@percent }
\newlabel{sec:MapGenerator}{{4.3.6}{70}{Generator poziomów}{subsection.4.3.6}{}}
\@writefile{toc}{\contentsline {paragraph}{Metody publiczne : Klasa MapGenerator}{70}{section*.119}\protected@file@percent }
\@writefile{lof}{\contentsline {figure}{\numberline {4.11}{\ignorespaces Diagram klasy generatora poziomów\relax }}{71}{figure.caption.118}\protected@file@percent }
\newlabel{fig:mapgenerator}{{4.11}{71}{Diagram klasy generatora poziomów\relax }{figure.caption.118}{}}
\@writefile{toc}{\contentsline {paragraph}{Atrybuty publiczne : Klasa MapGenerator}{72}{section*.120}\protected@file@percent }
\@writefile{toc}{\contentsline {paragraph}{Metody prywatne : Klasa MapGenerator}{72}{section*.121}\protected@file@percent }
\@writefile{toc}{\contentsline {paragraph}{Atrybuty prywatne : Klasa MapGenerator}{73}{section*.122}\protected@file@percent }
\@writefile{toc}{\contentsline {subsection}{\numberline {4.3.7}Generator szumów}{73}{subsection.4.3.7}\protected@file@percent }
\newlabel{noisegeneration}{{4.3.7}{73}{Generator szumów}{subsection.4.3.7}{}}
\@writefile{toc}{\contentsline {paragraph}{Metody publiczne : Klasa NoiseGenerator}{73}{section*.123}\protected@file@percent }
\@writefile{toc}{\contentsline {paragraph}{Atrybuty publiczne : Klasa NoiseGenerator}{73}{section*.124}\protected@file@percent }
\@writefile{toc}{\contentsline {paragraph}{Atrybuty chronione : Klasa NoiseGenerator}{74}{section*.125}\protected@file@percent }
\@writefile{toc}{\contentsline {paragraph}{Statyczne atrybuty prywatne : Klasa NoiseGenerator}{74}{section*.126}\protected@file@percent }
\@writefile{toc}{\contentsline {section}{\numberline {4.4}Algorytm generacji poziomów}{74}{section.4.4}\protected@file@percent }
\@writefile{toc}{\contentsline {section}{\numberline {4.5}Zaimplementowane jednostki cieniujące}{75}{section.4.5}\protected@file@percent }
\@writefile{toc}{\contentsline {subsection}{\numberline {4.5.1}ColorDisplacementShader}{75}{subsection.4.5.1}\protected@file@percent }
\@writefile{lot}{\contentsline {table}{\numberline {4.1}{\ignorespaces Właściwości ColorDisplacementShader\relax }}{76}{table.caption.127}\protected@file@percent }
\newlabel{tab:shader}{{4.1}{76}{Właściwości ColorDisplacementShader\relax }{table.caption.127}{}}
\@writefile{toc}{\contentsline {subsection}{\numberline {4.5.2}SpriteStencilMask}{76}{subsection.4.5.2}\protected@file@percent }
\@writefile{toc}{\contentsline {chapter}{\numberline {5}Weryfikacja i~walidacja}{77}{chapter.5}\protected@file@percent }
\@writefile{lof}{\addvspace {10\p@ }}
\@writefile{lot}{\addvspace {10\p@ }}
\@writefile{toc}{\contentsline {section}{\numberline {5.1}Sposób testowania}{77}{section.5.1}\protected@file@percent }
\@writefile{toc}{\contentsline {subsection}{\numberline {5.1.1}Testowanie komponentów}{77}{subsection.5.1.1}\protected@file@percent }
\@writefile{toc}{\contentsline {subsection}{\numberline {5.1.2}Testy integracji}{77}{subsection.5.1.2}\protected@file@percent }
\@writefile{toc}{\contentsline {subsection}{\numberline {5.1.3}Testy systemu}{78}{subsection.5.1.3}\protected@file@percent }
\@writefile{toc}{\contentsline {section}{\numberline {5.2}Wykryte i~usunięte błędy}{78}{section.5.2}\protected@file@percent }
\bibstyle{plplain}
\bibdata{bibliografia}
\@writefile{toc}{\contentsline {chapter}{\numberline {6}Podsumowanie i~wnioski}{81}{chapter.6}\protected@file@percent }
\@writefile{lof}{\addvspace {10\p@ }}
\@writefile{lot}{\addvspace {10\p@ }}
\@writefile{toc}{\contentsline {section}{\numberline {6.1}Możliwości rozwoju}{81}{section.6.1}\protected@file@percent }
\bibcite{bib:cs}{1}
\bibcite{bib:hlsl}{2}
\bibcite{bib:unity_manual}{3}
\bibcite{bib:addressables}{4}
\bibcite{bib:dotween}{5}
\bibcite{bib:tmpro}{6}
\bibcite{bib:unitask}{7}
\bibcite{bib:vs}{8}
\bibcite{bib:simplex}{9}
\bibcite{bib:perlin_def}{10}
\bibcite{mcneill2017generating}{11}
\bibcite{bib:generating_dungeons}{12}
\@writefile{toc}{\contentsline {chapter}{Bibliografia}{84}{chapter*.128}\protected@file@percent }
\@writefile{toc}{\contentsline {chapter}{Lista dodatkowych plików, uzupełniających tekst pracy}{87}{appendix*.129}\protected@file@percent }
\@writefile{toc}{\contentsline {chapter}{Spis rysunków}{90}{appendix*.130}\protected@file@percent }
\@writefile{toc}{\contentsline {chapter}{Spis tablic}{91}{appendix*.131}\protected@file@percent }
\gdef \@abspage@last{101}
