Language,Polski,English
ToolTip.Morales,Morale,Morales
ToolTip.Resources,Zasoby,Resources
ToolTip.Peoples,Ludzie,Peoples
ToolTip.Camp,Idź do obozu,Go to camp
ToolTip.MainMenu,Menu,Menu
ToolTip.Leader,Bohater,Leader
ToolTip.NextTurn,Następna tura,Next Turn
TileInfo.Wall,"Mur, tędy nie przejdziemy",Wall
TileInfo.Gate,Brama,Gate
TileInfo.Finished,"Miejsce z naszej przeszłości.
Prawdopodobnie żyje już tylko w naszej pamięci.",Visited land
TileInfo.OutOfSight,"To co się tam znajduje 
Jest poza zasięgiem naszego wzroku",What is there is beyond our sight
TileInfo.Warped,"Spaczona ziemia
Nie wyjdziemy z tego żywi",Warped land of death
Loading,Wczytywanie,Loading
MainMenu.Play,Graj,Play
MainMenu.NewGame,Nowa Gra,New Game
MainMenu.Continue,Kontynuuj,Continue
MainMenu.Load,Wczytaj,Load
MainMenu.Return,Powrót,Return
MainMenu.Settings,Ustawienia,Settings
MainMenu.Exit,Wyjdź do Pulpitu,Exit
MainMenu.DeleteSave,Usuń,Delete
MainMenu.DeleteSave.AcceptAction,"Chcesz usunąć zapis?
<b>Tej akcji nie można cofnąć</b>.","Do you want to delete the save?
<b>This action cannot be undone</b>."
MainMenu.Settings.Gameplay,Rozgrywka i dźwięk,Gameplay and Audio
MainMenu.Settings.AudioVideo,Obraz,Video
MainMenu.Settings.Controlls,Sterowanie,Controlls
MainMenu.Settings.Language,Język,Language
MainMenu.Settings.Resolution,Rozdzielczość,Resolution
MainMenu.Settings.FullScreen,Pełny ekran,Full Screen
MainMenu.Settings.Music,Muzyka,Music
MainMenu.Settings.SFX,Efekty dźwiękowe,Sound effects
MainMenu.Settings.Quality,Jakość tekstur,Quality
MainMenu.Settings.Quality.0,Bardzo niskie,Very low
MainMenu.Settings.Quality.1,Niskie,Low
MainMenu.Settings.Quality.2,Średnie,Medium
MainMenu.Settings.Quality.3,Wysokie,High
MainMenu.Settings.Controlls.Save,Zapisz,Save
MainMenu.Settings.Controlls.Default,Przywróć domyślne,Reset to Default
MainMenu.Settings.Controlls.Dialog.Conflict,Akcja „{0}” ma przypisany klawisz używany przez inną akcję. Wybierz inny,Action ”{0}” is using already used key. Choose another
MainMenu.Settings.Controlls.Dialog.SetDefaultWarning,Powrót do domyślnych natychmiastowo zmieni zapisane ustawienia. Kontynuować?,Return to default cause instant controlls overwrite. Continue?
MainMenu.Settings.Controlls.Dialog.Changed,Masz niezapisane ustawienia. Na pewno chcesz wyjść i utracić zapisane ustawienia?,You have unsaved changes. Do you wish to continue and lose settings.
MainMenu.Settings.Controlls.Dialog.Empty,Istnieją nieprzypisane klawisze,There are unassigned keys.
MainMenu.Settings.Controlls.ToolTip.PrimaryKey,Przycisk podstawowy,Primary key
MainMenu.Settings.Controlls.ToolTip.AlternativeKey,Przycisk alternatywny,Secondary key
MainMenu.Settings.Controlls.ToolTip.Clear,Wyczyść przypisanie,Clear
InGameMenu.Resume,Wznów,Resume
InGameMenu.GoToMainMenu,Menu główne,Main Menu
InGameMenu.GoToMainMenu.Dialog.AcceptAction,"Czy na pewno chcesz wyjść z do menu głownego?
Gra została zapisana po ostatnim ruchu.","Are you sure you want to exit to the main menu?
The game was saved after the last move."
FullScreenMode.ExclusiveFullScreen,Pełny ekran,Full Screen
FullScreenMode.FullScreenWindow,Okno bez ramki,Full Screen Window
FullScreenMode.MaximizedWindow,Zmaksymalizowane okno,Maximized Window
FullScreenMode.Windowed,Okno,Window
InputAction.Up,Przesunięcie w górę,Move up
InputAction.Down,Przesunięcie w dół,Move down
InputAction.Left,Przesunięcie w lewo,Move left
InputAction.Right,Przesunięcie w prawo,Move right
InputAction.ZoomIn,Przybliżenie,Zoom in
InputAction.ZoomOut,Oddalenie,Zoom out
InputAction.Press,Naciśnięcie,Press
InputAction.Back,Cofnij,Back
InputAction.Submit,Wprowadź,Submit
InputAction.NextTurn,Następna tura,Next turn
InputAction.Menu,Menu w grze,Ingame menu
InputAction.GoToCamp,Idź do obozu,Go to Camp
InputAction.Hero,Umiejętności,Skills
Dialog.Settings.Input,"Naciśnij przycisk dla „{0}”
Wybierz {1} lub {2} aby anulować","Press button for ”{0}”
Press {1} or {2} to abort"
Dialog.Yes,Tak,Yes
Dialog.No,Nie,No
Dialog.Ok,OK,OK
NewGame.SelectName,Jakie jest twoje imię?,What is your name?
NewGame.SelectName.Hint,Imię,Name
Endgame.Fact,"Budzisz się w swoim obozowisku.
To był tylko zły sen.
Twoi ludzie żyją i nadal są przy tobie.","You wake up in your encampment. 
It was just a bad dream. 
Your people are alive and are still with you."
Endgame.Doubt,"A może to było proroctwo?
Czy mam poprowadzić tych ludzi na niepewny szlak?","Or was it a prophecy?
Should I lead these people on a precarious path?"
Endgame.Replay,"Czas ruszać w drogę
(Rozpoczęcie od ostatniego punktu kontrolnego)","Time to go.
(Start from last checkpoint)"
Endgame.Abandon,"Muszę odejść zanim będzie za późno... dla nich 
(Koniec szlaku)","I have to leave before it's too late ... for them
(End of the trail)"
Endgame.Abandon.Accept,Chcesz zakończyć rozgrywkę i wyjść do menu?,Do you want to end the game and exit to the menu?
LevelTransition,Pierścień {0},Ring {0}
Skill.GeneralInfoFormat,"Poziom szacunku: {0}
Punkty potrzebne do następnego poziomu szacunku: {1} {2}
Wolne punkty umiejętności: {3}","Respect level: {0}
Points needed for the next level of respect: {1} {2}
Free skill points: {3}"
Skill.GeneralInfoFormat.Progress,({0} postępu),({0} progress)
Skill.GeneralInfoFormat.Max,Osiągnięto maksymalny poziom,Reached maksimum level
Skill.Counsel,Rada,Counsel
Skill.Counsel.Description,"Zwiększa szansę wykonania zadań dialogowych.
Zmniejsza zużycie zasobów","Increases the chance of completing dialogue tasks.
Reduces resource consumption"
Skill.Fortitude,Hart,Fortitude
Skill.Fortitude.Description,"Zwiększa szansę na wykonanie zadań siłowych. 
Zwiększa przychody morali","Increases the chance of performing strength tasks.
Increases morale income"
Skill.Piety,Wiara,Piety
Skill.Piety.Description,"Daje małą szansę na odgonienie wszystkich niebezpieczeństw.
Przyznaje losowe premie na płytkach","It gives a small chance to chase away all dangers.
Grants random passive bonuses"
Skill.Understanding,Zrozumienie,Understanding
Skill.Understanding.Description,"Zwiększa szansę na wykonanie zadań umysłowych.
Zmniejsza straty morali","Increases the chance of performing intellectual tasks.
Reduces the loss of morale"
Skill.Wisdom,Mądrość,Wisdom
Skill.Wisdom.Description,"Zwiększa zasięg rozpoznawania niebezpieczeństw.
Zwiększa przychody zasobów","Increases the range of dangers recognition.
Increases resource income"
Events.Require,Wymaga,Require
Events.Scaled,Wzmacniane przez,Amplified by
Event.Test.Title,Testowe zdarzenie,Test event
Event.Test.Description,"Lorem ipsum dolor sit amet, consectetur adipiscing elit. Vivamus massa velit, consectetur sed diam et, pretium lacinia ante. Cras lobortis, quam vitae aliquet ultrices, lacus magna varius arcu, nec iaculis purus massa id nisl. Maecenas vitae euismod lacus, non lobortis turpis. Curabitur odio leo, tincidunt ut urna at, ultricies blandit sapien. Vestibulum sit amet nunc a dolor maximus consequat. Donec quis vestibulum nunc. Donec libero massa, pharetra lobortis rhoncus et, dictum eget nisi. Integer elementum metus sit amet orci pretium, sed cursus massa congue. Ut lobortis erat quis ligula laoreet, id sollicitudin purus sodales. Cras lacinia neque in vulputate vestibulum. Morbi at suscipit lacus. Duis at sapien dui. Nulla ut vulputate orci. Class aptent taciti sociosqu ad litora torquent per conubia nostra, per inceptos himenaeos. 
Suspendisse at semper lacus. Pellentesque eu tortor leo. Vivamus ultricies lorem ut tortor facilisis porttitor. Nullam augue risus, mattis et metus sed, condimentum fringilla velit. Phasellus id eros at purus efficitur egestas vitae non risus. Vestibulum eget odio magna. Mauris risus elit, pretium non scelerisque et, ullamcorper quis orci. Duis accumsan mauris sit amet odio vehicula, et cursus leo pharetra. Sed erat nisl, consectetur ut magna non, eleifend dignissim justo. Sed varius faucibus ligula eget maximus. Donec eu velit semper, molestie nulla sit amet, pellentesque ante.
Suspendisse at semper lacus. Pellentesque eu tortor leo. Vivamus ultricies lorem ut tortor facilisis porttitor. Nullam augue risus, mattis et metus sed, condimentum fringilla velit. Phasellus id eros at purus efficitur egestas vitae non risus. Vestibulum eget odio magna. Mauris risus elit, pretium non scelerisque et, ullamcorper quis orci. Duis accumsan mauris sit amet odio vehicula, et cursus leo pharetra. Sed erat nisl, consectetur ut magna non, eleifend dignissim justo. Sed varius faucibus ligula eget maximus. Donec eu velit semper, molestie nulla sit amet, pellentesque ante.","Lorem ipsum dolor sit amet, consectetur adipiscing elit. Vivamus massa velit, consectetur sed diam et, pretium lacinia ante. Cras lobortis, quam vitae aliquet ultrices, lacus magna varius arcu, nec iaculis purus massa id nisl. Maecenas vitae euismod lacus, non lobortis turpis. Curabitur odio leo, tincidunt ut urna at, ultricies blandit sapien. Vestibulum sit amet nunc a dolor maximus consequat. Donec quis vestibulum nunc. Donec libero massa, pharetra lobortis rhoncus et, dictum eget nisi. Integer elementum metus sit amet orci pretium, sed cursus massa congue. Ut lobortis erat quis ligula laoreet, id sollicitudin purus sodales. Cras lacinia neque in vulputate vestibulum. Morbi at suscipit lacus. Duis at sapien dui. Nulla ut vulputate orci. Class aptent taciti sociosqu ad litora torquent per conubia nostra, per inceptos himenaeos. 
Suspendisse at semper lacus. Pellentesque eu tortor leo. Vivamus ultricies lorem ut tortor facilisis porttitor. Nullam augue risus, mattis et metus sed, condimentum fringilla velit. Phasellus id eros at purus efficitur egestas vitae non risus. Vestibulum eget odio magna. Mauris risus elit, pretium non scelerisque et, ullamcorper quis orci. Duis accumsan mauris sit amet odio vehicula, et cursus leo pharetra. Sed erat nisl, consectetur ut magna non, eleifend dignissim justo. Sed varius faucibus ligula eget maximus. Donec eu velit semper, molestie nulla sit amet, pellentesque ante.
Suspendisse at semper lacus. Pellentesque eu tortor leo. Vivamus ultricies lorem ut tortor facilisis porttitor. Nullam augue risus, mattis et metus sed, condimentum fringilla velit. Phasellus id eros at purus efficitur egestas vitae non risus. Vestibulum eget odio magna. Mauris risus elit, pretium non scelerisque et, ullamcorper quis orci. Duis accumsan mauris sit amet odio vehicula, et cursus leo pharetra. Sed erat nisl, consectetur ut magna non, eleifend dignissim justo. Sed varius faucibus ligula eget maximus. Donec eu velit semper, molestie nulla sit amet, pellentesque ante."
Event.Test.Options.Run,Uciekaj!,Run!
Event.Contiunue,Kontynuuj,Continue
Event.Story.1.Title,Początek końca,Beginning of the end
Event.Story.1.Description,"Dotarliście do zamku. Wielu nie widziało wcześniej tak ogromnej budowli. Brama zaczęła otwierać się z zgrzytem. „Szybciej! Zanim ta plaga się tutaj dostanie.” - krzyczeli strażnicy na murach. Kiedy wszyscy dostali się do środka, brama już się zamykała. Przywitał was starszy człowiek w długich szatach. „Witajcie w pierwszym pierścienu. Przepraszamy za to mało gościnne rozpoczęcie, jednak wszyscy są przerażeni nadciągającym <i>spaczeniem</i>. Ta filoetowa mgła pojawiła sie niedawno i niszczy wszystko na swojej drodze. Jeszcze niedawno myśleliśmy, że nie będzie w stanie przejść murów, jednak ich cześć już została pokryta. Widzimy, że kolejny pierścien ma już ten sam problem co my niedawno. <i>Spaczenie</i> przy dotyku niszczy wszystko co żyje. Nasi czarodzieje próbowali odpędzić ją z niektórych miejsc, jendak mgła pozostawia po sobie tylko pustynie. Wiele z posterunków zostało opuszczone, ponieważ nikt nie chce być sam na sam z <i>spaczeniem</i>. Tutaj jak na razie jesteście bezpieczni, możecie się rozgościć, jednak nasze zasoby nie pozwalają na długie utrzymanie tak dużej grupy.” Ukłonił się nisko i odszedł w asyście strażnika.","You've made it to the castle. Many have not seen such a huge structure before. The gate screeched open. ""Hurry up! Before this plague gets here."" the guards on the walls shouted. When everyone got inside, the gate was already closing. An elderly man in long robes greeted you. ""Welcome to the First Ring. We apologize for the uninviting beginning, but all are terrified of the impending <i> corruption </i>. This phylloetic haze has recently appeared and is destroying everything in its path. walls, but part of them has already been covered. We can see that the next ring has the same problem as we did recently. <i> Corruption </i> destroys everything that is alive when touched. Our wizards tried to chase it away from some places, but the fog leaves only deserts after themselves Many of the outposts have been abandoned because no one wants to be alone with <i> corruption </i>. Here you are safe for now, you can make yourself at home, but our resources do not allow us to maintain such a large group. "" He bowed low and walked away, assisted by a guard."
Event.Story.2.Title,Utracone wspomnienia,Lost memories
Event.Story.2.Description,"Następny zamek. Tym razem powitanie było podobne. Po wejściu jednak zacząłeś sobie przypominać dawne uliczki. Ludzie chodzący wokół witali Cię jakby już dawno Cie znali. Możliwe, że tutejsi ludzie po prostu są mili. Nigdy wcześniej nie byłeś w Pierścieniach Imperium. Chociaż z jakiegoś powodu jedyne wspomnienia, które pamiętasz to te z czasów drogi, po obudzeniu się w obozie nomadów, tuż przed wielką mgłą zwaną „<i>spaczenie</i>”.","The next castle. This time the greeting was similar. After entering, however, you began to remember the old streets. People walking around greeted you as if they knew you long ago. It's possible that the people here are just nice. You've never been to the Rings of the Empire before. Although for some reason the only memories you remember are those of the journey, after waking up in a nomad camp, right in front of a great fog called ""<i> corruption </i>""."
Event.Story.3.Title,Dotarłeś do zamku 3,You made it to Castle 3
Event.Story.3.Description,"Odpocznij i poczekaj, aż ktoś wymyśli fabułę. Masz tu tymczasowa nagrodę {0} {1} {2} {3}",Take a break and wait for someone to come up with a plot. You have a temporary reward here {0} {1} {2} {3}
Event.Story.4.Title,Dotarłeś do zamku 4,You made it to Castle 4
Event.Story.4.Description,"Odpocznij i poczekaj, aż ktoś wymyśli fabułę. Masz tu tymczasowa nagrodę {0} {1} {2} {3}",Take a break and wait for someone to come up with a plot. You have a temporary reward here {0} {1} {2} {3}
Event.Story.5.Title,Dotarłeś do zamku 5,You made it to Castle 5
Event.Story.5.Description,"Odpocznij i poczekaj, aż ktoś wymyśli fabułę. Masz tu tymczasowa nagrodę {0} {1} {2} {3}",Take a break and wait for someone to come up with a plot. You have a temporary reward here {0} {1} {2} {3}
Event.Story.6.Title,Dotarłeś do zamku 6,You made it to Castle 6
Event.Story.6.Description,"Odpocznij i poczekaj, aż ktoś wymyśli fabułę. Masz tu tymczasowa nagrodę {0} {1} {2} {3}",Take a break and wait for someone to come up with a plot. You have a temporary reward here {0} {1} {2} {3}
Event.Story.7.Title,Dotarłeś do zamku 7,You made it to Castle 7
Event.Story.7.Description,"Odpocznij i poczekaj, aż ktoś wymyśli fabułę. Masz tu tymczasowa nagrodę {0} {1} {2} {3}",Take a break and wait for someone to come up with a plot. You have a temporary reward here {0} {1} {2} {3}
Event.Story.8.Title,Dotarłeś do zamku 8,You made it to Castle 8
Event.Story.8.Description,"Odpocznij i poczekaj, aż ktoś wymyśli fabułę. Masz tu tymczasowa nagrodę {0} {1} {2} {3}",Take a break and wait for someone to come up with a plot. You have a temporary reward here {0} {1} {2} {3}
Event.Story.9.Title,Dotarłeś do zamku 9,You made it to Castle 9
Event.Story.9.Description,"Odpocznij i poczekaj, aż ktoś wymyśli fabułę. Masz tu tymczasowa nagrodę {0} {1} {2} {3}",Take a break and wait for someone to come up with a plot. You have a temporary reward here {0} {1} {2} {3}
Event.Story.10.Title,Dotarłeś do zamku 10,You made it to Castle 10
Event.Story.10.Description,"Odpocznij i poczekaj, aż ktoś wymyśli fabułę. Masz tu tymczasowa nagrodę {0} {1} {2} {3}",Take a break and wait for someone to come up with a plot. You have a temporary reward here {0} {1} {2} {3}
Continue,Kontynuuj,Continue
Merchant.Title,Kupiec,Merchant
Merchant.Main,"Idąc drogą spotykacie wędrownego kupca. Podążają za nim dwa osły objuczone towarami. „Dobrzy ludzie, nie macie czegoś na wymianę?” - pyta twoją grupę już z daleka. Na jego osłach znajduje się dużo świeżego jedzenia i zasobów.","As you walk along the road, you meet a traveling merchant. He is followed by two donkeys laden with goods. ""Good people, don't you have anything to trade?"" - he asks your group from a distance. There is a lot of fresh food and resources on his donkeys."
Merchant.Main.BuyFood,Kup trochę jedzenia,Get some food
Merchant.Buyed,"Twoja grupa uzbierała parę przedmiotów na wymianę. Otrzymujecie od kupca mały zapas jedzenia ({3}). Twoi ludzie popierają tą decyzję, ponieważ to jedzenie pomoże wam w trudnych chwilach ({0}). Kupiec odchodzi.",Your group has collected some items for exchange. You receive a small supply of food from the merchant ({3}). Your people support this decision because this food will help you in difficult times ({0}). The merchant leaves.
Merchant.Goodbye,Żegnaj!,Goodbye!
Merchant.Main.BuyMoreFood,Kup dużo jedzenia,Buy lots of food
Merchant.ManyBuyed,"Twoja grupa uzbierała przedmioty na wymianę. Otrzymujecie od kupca duży zapas jedzenia ({3}). Twoi ludzie popierają tą decyzję, ponieważ to jedzenie pomoże wam w trudnych chwilach ({0}). Niektórzy, jednak szemrają przeciwko twojej decyzji, ponieważ musieli oddać swoją broń służącą do obrony ({1}). Kupiec odchodzi zadowolony.","Your group has collected items for exchange. You receive a large supply of food from the merchant ({3}). Your people support this decision because this food will help you in difficult times ({0}). Some, however, murmur against your decision because they had to surrender their weapons of defense ({1}). The merchant leaves satisfied."
Merchant.Main.Attack,Zaatakuj kupca,Attack the merchant
Merchant.AttackSucess,Ty i paru ludzi ruszacie z bronią na kupca. Kupiec okazuje się bezbronny. Zabieracie jego osły i zostawiacie go samego. Ludzie cieszą się z uzyskanych zasobów ({0} {1} {3}).,You and a few people go with your weapons at the merchant. The merchant turns out to be defenseless. You take his donkeys and leave him alone. People are happy with the resources obtained ({0} {1} {3}).
Merchant.AttackFailed,"Ty i paru ludzi ruszacie z bronią na kupca. Kiedy pierwszy z twoich ludzi dobiegł do kupca, on wykonał jakiś piruet. Po chwili twój towarzysz pada zakrwawiony na kolana ({2}), a spod rękawa kupca wystaje żarzący się w świetle czerwony miecz. ,,Który następny?!” - krzyczy kupiec. Ludzie panikują i uciekają ({1}).","You and a few people go with your weapons at the merchant. When the first of your men reached the merchant, he did a pirouette. After a while your companion drops bloody on his knees ({2}), and a red sword glowing in the light protrudes from under the merchant's sleeve. ,""Who's next?!"" the merchant shouts. People panic and run away ({1})."
Merchant.Fled,Uciekaj,Fled
Merchant.Attack.Duel,Pojedynek,Duel
Merchant.DuelSucess,"Walka trwała długo. Kupiec widocznie w celu zyskania towarów nie zajmował się tylko handlem. W pewnym momencie popełnił błąd, który pozwolił wytrącić miecz jego ręki. Kupiec pada na kolana i prosi o oszczędzenie jego życia. Twoi ludzie wiwatują. Poza zasobami kupca zyskałeś lojalność swojej grupy ({0} {1} {3}).","The fight lasted a long time. The merchant, apparently, was not just trading in order to get goods. At one point he made a mistake which allowed the sword of his hand to be knocked out. The merchant falls to his knees and asks for his life to be spared. Your people are cheering. In addition to the merchant's resources, you gained your group's loyalty ({0} {1} {3})."
Merchant.DuelFailed,"Walka trwała długo. Kupiec nie przestaje nacierać. Pod wpływem narastającego tępa jego ciosów, tracisz możliwość ich parowania. Kupiec nagłym ruchem przebija twoją gardę i trafia w ramię uniemożliwiając walkę. Poddajesz się. Ludzie tracą nadzieje w to, ze ich poprowadzisz ({1}). Kupiec zabiera wam część zasobów jako trybut ({3}).","The fight lasted a long time. The merchant continues to charge. Due to the growing bluntness of his blows, you lose the ability to parry them. The merchant suddenly pierces your guard and hits your shoulder, making it impossible to fight. You're giving up. People lose hope that you will lead them ({1}). The merchant takes some of your resources as tribute ({3})."
Collect.Title,Zbieracze,Gatherers
Collect.Main,"Jeden z twoich ludzi proponuje, by w czasie postoju część grupy poszła zbierać zasoby. Teren nie jest im znany, ale wydaje się, że mogą coś znaleźć.","One of your people suggests that part of the group go gather resources during the stop. The area is unknown to them, but it seems they can find something."
Collect.Collect,Idźcie zbierać,Go gather
Collect.Near,Zbierajcie tylko wokół obozu,Only collect around the camp
Collect.Dont,To zbyt ryzykowne,It's too risky
Collect.Sucess,Zbieracze powrócili cali i zdrowi. Zyskano {0} {3}.,The collectors returned safe and sound. {0} {3} gained.
Collect.Failed,Część zbieraczy zgubiła się w czasie wykonywania zadania ({2}). Zyskano {0} {3}.,Some of the pickers got lost while completing the quest ({2}). {0} {3} gained.
Beggar.Title,Żebrak,Beggar
Beggar.TitleWizard,Czarodziej-żebrak,Sorcerer-beggar
Beggar.Main,Na szlaku spotykacie żebraka. Ma na sobie podartą szatę. Podpiera się spróchniałą drewnianą laską. Prosi o trochę jedzenia.,You meet a beggar on the trail. He is wearing a torn robe. He is propped up with a rotten wooden cane. He asks for some food.
Beggar.Give,Daj jedzenie,Give me food
Beggar.GoAway,Przepędź,Drive away
Beggar.Gifted,Żebrak dziękuje Ci i życzy twojej grupie dojścia do celu. Zyskujesz {0}.,The beggar thanks you and wishes your group to achieve their goal. You gain {0}.
Beggar.Curse,"Żebrak uderza kijem w ziemię. Nagle przemawia znacznie wyższym i mocniejszym głosem. „Będziecie usychać tak jak ja, krocząc po piaskach pustyni” - brzmiał głos wydobywający się spod kaptura.
Nagle wszystkie drzewa i trawy wokół wyparowały. Wzgórza rozsypały się na wietrze. Żebrak zniknął, a twoja grupa stała teraz na środku pustyni. Ludzie są przerażeni mocą czarodzieja ({1}).","The beggar hits the ground with a stick. Suddenly, he speaks in a much higher and stronger voice. ""You will wither as I walk on the sands of the desert,"" was the voice coming from under the hood.
Suddenly, all the trees and grass around it evaporated. The hills crumbled in the wind. The beggar was gone, and your group was now standing in the middle of the desert. People are terrified of the wizard's power ({1})."
Beggar.BreakSpell,Odwróć zaklęcie,Reverse the spell
Beggar.SpellBreakeSucess,"Recytujesz prośbę odpędzenia niebezpieczeństw. Spod piasku zaczęła ponownie wystawać ziemia. Nie była już tak urodzajna jak wcześniej, ale przynajmniej nie był to palący piasek. Ludzie odetchnęli z ulgą ({0} {1}).","You recite a plea to banish the dangers. The dirt began to protrude again from under the sand. It wasn't as fertile as it was before, but at least it wasn't burning sand. People breathed a sigh of relief ({0} {1})."
Beggar.SpellBreakeFailed,Recytujesz prośbę odpędzenia niebezpieczeństw. Słyszysz głośny rechot w głowie: „Głupcy”. Spod piasku zaczęły wystawać kamienie. Nagle kamienie urosły pod nogami zmieniając się w góry. Ludzie są podzieleni i tracą wiarę w twoje dowództwo ({1}).,"You recite a plea to banish the dangers. You hear a loud cackle in your head: ""Fools."" Stones started sticking out from under the sand. Suddenly the stones rose under my feet, turning into mountains. People are divided and they are losing faith in your command ({1})."
Wolfs.Title,Wilki,Wolves
Wolfs.Main,"Jeden z twoich ludzi zauważył, jak przy granicy obozu kręcą się wilki. Są zagrożeniem dla naszych zapasów, a nawet ludzi. „Co powinniśmy zrobić?” - pyta.","One of your men noticed wolves hanging around the camp's border. They are a threat to our supplies and even our people. ""What should we do?"" - he asks."
Wolfs.Gather,Zebrać ludzi w środku obozu,Gather people in the middle of the camp
Wolfs.Traps,Rozstawić pułapki,Set up traps
Wolfs.Hunt,Zapolujmy,Let's hunt
Wolfs.Spell,Przygotuj zaklęcie odstraszające zło,Prepare evil deterrent spell
Wolfs.GatherDescription,"Zebranie ludzi w środku obozu było dobrym pomysłem {0}. Wilki bały się podejść do dużego ogniska, straciliśmy jednak część zasobów, które zostały w skrajnych namiotach ({3}) .","Gathering people in the middle of the camp was a good idea {0}. The wolves were afraid to approach the large fire, but we lost some of the resources that were left in the outer tents ({3})."
Wolfs.HuntDescription,"Polowanie się udało, wilki już nie powinny zagrażać obozowi {0}. Podczas polowania ciężko ranny został jeden z łowców {2}.","The hunt was successful, the wolves should no longer threaten the camp {0}. One of the hunters {2} was seriously injured during the hunt."
Wolfs.TrapsDescription,"Rozstawienie pułapek pozwoliło na zabezpieczenie obozu przez całą noc {0}. Nie straciliśmy żadnych zasobów i ludzi, poza materiałami na budowę pułapek {3}.","Placing the traps allowed the camp to be secured for the whole night {0}. We didn't lose any resources or people, apart from materials for building traps {3}."
Wolfs.SpellFailed,Zaklęcie nie pomogło. Wilki rozerwały magazyny z zasobami oraz zabiły część ludzi ({1} {2} {3}).,The spell didn't help. Wolves tore the resource stores and killed some of the people ({1} {2} {3}).
Wolfs.SpellSucess,"Zaklęcie skutecznie przegoniło wilki {0}. Ta noc była bezpieczna, nic nie przeszkadzało obozowiczom ({1}).","The spell chased away the wolves {0}. That night was safe, nothing disturbed the campers ({1})."
Another.Title,Inni,Others
Another.Main,"Idąc, pomiędzy wydmami spotykacie inną grupę nomadów. „Pomocy, zgubiliśmy się na tej przeklętej pustyni!” - wołają. Czy można im wierzyć? To może być pułapka.","As you walk between the dunes, you meet another group of nomads. ""Help, we're lost in this goddamn desert!"" - they cry. Can you believe them? It could be a trap."
Another.Include,Przyjmijmy ich,Let us take them
Another.Dismiss,Zostawmy ich,Let's leave them
Another.IncludeDescription,"Zagubiona grupa cieszy się z widoku innych ludzi przychodzących im z pomocą {0}. Z chęcią dołączają pod twoje dowództwo {2}. Twoi ludzie szemrają, że to może się źle skończyć {1}. ",The lost group is happy to see other people come to their aid {0}. They are happy to join your command {2}. Your people are murmuring that it might end badly {1}.
Castle.Basic.Title,Zamek,Castle
Castle.Basic.VariantMarketTavern,"Ludzie rozchodzą się by odpocząć po trudach podróży, są Ci wdzięczni za doprowadzenie ich aż tutaj ({0}). W zamku znajduje się duży rynek. Można tam nabyć zasoby potrzebne w drodze. Na drugim końcu znajduje się tawerna, może uda się tam znaleźć nowych członków naszej grupy. Czas nagli, nie możemy tutaj pozostać długo, zdążymy się udać tylko w jedne z tych miejsc.","People go to rest after the hardships of the journey, they are grateful to you for bringing them all the way here ({0}). There is a large market in the castle. There you can buy the resources you need on the way. There is a tavern at the other end, maybe we can find new members of our group there. Time is running out, we cannot stay here long, we will only manage to go to one of these places."
Castle.Basic.VariantMarketTraining,"Ludzie rozchodzą się by odpocząć po trudach podróży, są Ci wdzięczni za doprowadzenie ich aż tutaj ({0}). W zamku znajduje się duży rynek. Można tam nabyć zasoby potrzebne w drodze.  Podczas przechodzenia było słychać dźwięki z obozu wojskowego. Możliwe, że pozwoliliby odświeżyć nasze umiejętności walki oraz broń. Czas nagli, nie możemy tutaj pozostać długo, zdążymy się udać tylko w jedne z tych miejsc.","People go to rest after the hardships of the journey, they are grateful to you for bringing them all the way here ({0}). There is a large market in the castle. There you can buy the resources you need on the way. While passing through, you could hear sounds from the military camp. It is possible that they could refresh our fighting skills and weapons. Time is running out, we cannot stay here long, we will only manage to go to one of these places."
Castle.Basic.VariantTavernTraining,"Ludzie rozchodzą się by odpocząć po trudach podróży, są Ci wdzięczni za doprowadzenie ich aż tutaj ({0}). Podczas przechodzenia było słychać dźwięki z obozu wojskowego. Możliwe, że pozwoliliby odświeżyć nasze umiejętności walki oraz broń. Na drugim końcu znajduje się tawerna, może uda się tam znaleźć nowych członków naszej grupy. Czas nagli, nie możemy tutaj pozostać długo, zdążymy się udać tylko w jedne z tych miejsc.","People go to rest after the hardships of the journey, they are grateful to you for bringing them all the way here ({0}). While passing through, you could hear sounds from the military camp. It is possible that they could refresh our fighting skills and weapons. There is a tavern at the other end, maybe we can find new members of our group there. Time is running out, we cannot stay here long, we will only manage to go to one of these places."
Castle.Basic.Market,Rynek,Market
Castle.Basic.Tavern,Tawerna,Tavern
Castle.Basic.Training,Obóz wojskowy,Military camp
Castle.Basic.Market.Description,Rynek obfituje w różne towary. Udało się znaleźć w dobrej cenie zasoby na drogę {3}.,The market is full of various goods. We found resources for the road at a good price {3}.
Castle.Basic.Tavern.Description,"W tawernie znajduje się bardzo wielu ludzi gotowych ruszyć z zamku. Wiedzą, że zamek może nie powstrzymać nadchodzącego niebezpieczeństwa.",There are many people in the tavern ready to leave the castle. They know the castle may not contain the danger ahead.
Castle.Basic.Training.Description,W obozie pozwolili drużynie naostrzyć broń oraz naprawić zbroje. Na pewno poprawi to morale grupy.,"At the camp, they allowed the team to sharpen their weapons and repair their armor. It will definitely improve the morale of the group."
