%YAML 1.1
%TAG !u! tag:unity3d.com,2011:
--- !u!1001 &201255757801133781
PrefabInstance:
  m_ObjectHideFlags: 0
  serializedVersion: 2
  m_Modification:
    m_TransformParent: {fileID: 0}
    m_Modifications:
    - target: {fileID: 4610015221123939765, guid: 638835379e904b148a2c4482f618a3bf,
        type: 3}
      propertyPath: m_Sprite
      value: 
      objectReference: {fileID: -8588203809408360449, guid: 3881fbf0e0fc73b43bb500b24226872d,
        type: 3}
    - target: {fileID: 4610015221123939766, guid: 638835379e904b148a2c4482f618a3bf,
        type: 3}
      propertyPath: m_SizeDelta.y
      value: 0
      objectReference: {fileID: 0}
    - target: {fileID: 4610015221620315588, guid: 638835379e904b148a2c4482f618a3bf,
        type: 3}
      propertyPath: m_Name
      value: CharacterInfoButton
      objectReference: {fileID: 0}
    - target: {fileID: 4610015221620315595, guid: 638835379e904b148a2c4482f618a3bf,
        type: 3}
      propertyPath: m_Pivot.x
      value: 0.5
      objectReference: {fileID: 0}
    - target: {fileID: 4610015221620315595, guid: 638835379e904b148a2c4482f618a3bf,
        type: 3}
      propertyPath: m_Pivot.y
      value: 0.49999982
      objectReference: {fileID: 0}
    - target: {fileID: 4610015221620315595, guid: 638835379e904b148a2c4482f618a3bf,
        type: 3}
      propertyPath: m_RootOrder
      value: 0
      objectReference: {fileID: 0}
    - target: {fileID: 4610015221620315595, guid: 638835379e904b148a2c4482f618a3bf,
        type: 3}
      propertyPath: m_AnchorMax.x
      value: 0
      objectReference: {fileID: 0}
    - target: {fileID: 4610015221620315595, guid: 638835379e904b148a2c4482f618a3bf,
        type: 3}
      propertyPath: m_AnchorMax.y
      value: 0
      objectReference: {fileID: 0}
    - target: {fileID: 4610015221620315595, guid: 638835379e904b148a2c4482f618a3bf,
        type: 3}
      propertyPath: m_AnchorMin.x
      value: 0
      objectReference: {fileID: 0}
    - target: {fileID: 4610015221620315595, guid: 638835379e904b148a2c4482f618a3bf,
        type: 3}
      propertyPath: m_AnchorMin.y
      value: 0
      objectReference: {fileID: 0}
    - target: {fileID: 4610015221620315595, guid: 638835379e904b148a2c4482f618a3bf,
        type: 3}
      propertyPath: m_SizeDelta.x
      value: 0
      objectReference: {fileID: 0}
    - target: {fileID: 4610015221620315595, guid: 638835379e904b148a2c4482f618a3bf,
        type: 3}
      propertyPath: m_SizeDelta.y
      value: 119.626724
      objectReference: {fileID: 0}
    - target: {fileID: 4610015221620315595, guid: 638835379e904b148a2c4482f618a3bf,
        type: 3}
      propertyPath: m_LocalPosition.x
      value: 0
      objectReference: {fileID: 0}
    - target: {fileID: 4610015221620315595, guid: 638835379e904b148a2c4482f618a3bf,
        type: 3}
      propertyPath: m_LocalPosition.y
      value: 0
      objectReference: {fileID: 0}
    - target: {fileID: 4610015221620315595, guid: 638835379e904b148a2c4482f618a3bf,
        type: 3}
      propertyPath: m_LocalPosition.z
      value: 0
      objectReference: {fileID: 0}
    - target: {fileID: 4610015221620315595, guid: 638835379e904b148a2c4482f618a3bf,
        type: 3}
      propertyPath: m_LocalRotation.w
      value: 1
      objectReference: {fileID: 0}
    - target: {fileID: 4610015221620315595, guid: 638835379e904b148a2c4482f618a3bf,
        type: 3}
      propertyPath: m_LocalRotation.x
      value: 0
      objectReference: {fileID: 0}
    - target: {fileID: 4610015221620315595, guid: 638835379e904b148a2c4482f618a3bf,
        type: 3}
      propertyPath: m_LocalRotation.y
      value: 0
      objectReference: {fileID: 0}
    - target: {fileID: 4610015221620315595, guid: 638835379e904b148a2c4482f618a3bf,
        type: 3}
      propertyPath: m_LocalRotation.z
      value: 0
      objectReference: {fileID: 0}
    - target: {fileID: 4610015221620315595, guid: 638835379e904b148a2c4482f618a3bf,
        type: 3}
      propertyPath: m_AnchoredPosition.x
      value: 0
      objectReference: {fileID: 0}
    - target: {fileID: 4610015221620315595, guid: 638835379e904b148a2c4482f618a3bf,
        type: 3}
      propertyPath: m_AnchoredPosition.y
      value: 60
      objectReference: {fileID: 0}
    - target: {fileID: 4610015221620315595, guid: 638835379e904b148a2c4482f618a3bf,
        type: 3}
      propertyPath: m_LocalEulerAnglesHint.x
      value: 0
      objectReference: {fileID: 0}
    - target: {fileID: 4610015221620315595, guid: 638835379e904b148a2c4482f618a3bf,
        type: 3}
      propertyPath: m_LocalEulerAnglesHint.y
      value: 0
      objectReference: {fileID: 0}
    - target: {fileID: 4610015221620315595, guid: 638835379e904b148a2c4482f618a3bf,
        type: 3}
      propertyPath: m_LocalEulerAnglesHint.z
      value: 0
      objectReference: {fileID: 0}
    - target: {fileID: 4610015222191142538, guid: 638835379e904b148a2c4482f618a3bf,
        type: 3}
      propertyPath: m_AnchorMax.x
      value: 1
      objectReference: {fileID: 0}
    - target: {fileID: 4610015222191142538, guid: 638835379e904b148a2c4482f618a3bf,
        type: 3}
      propertyPath: m_AnchorMin.x
      value: 1
      objectReference: {fileID: 0}
    - target: {fileID: 4610015222191142538, guid: 638835379e904b148a2c4482f618a3bf,
        type: 3}
      propertyPath: m_SizeDelta.x
      value: 0
      objectReference: {fileID: 0}
    - target: {fileID: 5345062013194510179, guid: 638835379e904b148a2c4482f618a3bf,
        type: 3}
      propertyPath: messageKey
      value: ToolTip.Leader
      objectReference: {fileID: 0}
    m_RemovedComponents: []
  m_SourcePrefab: {fileID: 100100000, guid: 638835379e904b148a2c4482f618a3bf, type: 3}
